........
----------------------------------------------------------------------
Ran 8 tests in 0.001s

OK
Name               Stmts   Miss Branch BrPart  Cover   Missing
--------------------------------------------------------------
Diplomacy.py          71      3     52      6    91%   44->46, 51->53, 62->41, 77->79, 95-96, 103
TestDiplomacy.py      61      0      2      1    98%   106->exit
--------------------------------------------------------------
TOTAL                132      3     54      7    94%
