...........
----------------------------------------------------------------------
Ran 11 tests in 0.030s

OK
Name               Stmts   Miss Branch BrPart  Cover   Missing
--------------------------------------------------------------
Diplomacy.py          75      0     42      0   100%
TestDiplomacy.py      61      0      0      0   100%
--------------------------------------------------------------
TOTAL                136      0     42      0   100%
