...
----------------------------------------------------------------------
Ran 3 tests in 0.001s

OK
Name               Stmts   Miss Branch BrPart  Cover   Missing
--------------------------------------------------------------
Diplomacy.py          57      0     36      1    99%   57->66
TestDiplomacy.py      21      0      0      0   100%
--------------------------------------------------------------
TOTAL                 78      0     36      1    99%
