......
----------------------------------------------------------------------
Ran 6 tests in 0.001s

OK
Name               Stmts   Miss Branch BrPart  Cover   Missing
--------------------------------------------------------------
Diplomacy.py          56      0     32      0   100%
TestDiplomacy.py      31      0      2      1    97%   71->exit
--------------------------------------------------------------
TOTAL                 87      0     34      1    99%